{
  "projectId": "ik9icv",
  "baseUrl": "http://localhost:8080/",
  "fixturesFolder": "test/cypress/fixtures",
  "integrationFolder": "test/cypress/integration",
  "pluginsFile": "test/cypress/plugins/index.js",
  "screenshotsFolder": "test/cypress/screenshots",
  "supportFile": "test/cypress/support/index.js",
  "videosFolder": "test/cypress/videos",
  "video": true,
  "viewportWidth": 1440,
  "pageLoadTimeout" : 15000,
  "defaultCommandTimeout": 15000,
  "chromeWebSecurity": false
}
